{
  "project_info": {
    "project_number": "1058905539175",
    "firebase_url": "https://gester-nure.firebaseio.com",
    "project_id": "gester-nure",
    "storage_bucket": "gester-nure.appspot.com"
  },
  "client": [
    {
      "client_info": {
        "mobilesdk_app_id": "1:1058905539175:android:1b57d2cdfabfc3b10f8ac2",
        "android_client_info": {
          "package_name": "ua.nure.gester"
        }
      },
      "oauth_client": [
        {
          "client_id": "1058905539175-02qt8d2s6f4k0vo3q8o4dbg53qfnmg8i.apps.googleusercontent.com",
          "client_type": 3
        }
      ],
      "api_key": [
        {
          "current_key": "AIzaSyDTO84vzf74GNf4N6T5k9BpaL86Db5VzSQ"
        }
      ],
      "services": {
        "appinvite_service": {
          "other_platform_oauth_client": [
            {
              "client_id": "1058905539175-02qt8d2s6f4k0vo3q8o4dbg53qfnmg8i.apps.googleusercontent.com",
              "client_type": 3
            }
          ]
        }
      }
    }
  ],
  "configuration_version": "1"
}